<svg class="icon" xmlns="http://www.w3.org/2000/svg" viewBox="0 0 64 64">
  <path d="M55.8587473,4.30859341 C52.5749671,1.02481319 47.9389451,0.509670331 42.4337144,0.509670331 L17.3543077,0.509670331 C11.9456703,0.509670331 7.30964836,1.02481319 4.02586814,4.30859341 C0.742021979,7.59243957 0.25912088,12.1962198 0.25912088,17.5726813 L0.25912088,42.4267913 C0.25912088,47.9319957 0.742021979,52.5035935 4.02586814,55.7874199 C7.30964836,59.0712463 11.9456703,59.5863561 17.4187253,59.5863561 L42.4337144,59.5863561 C47.9389451,59.5863561 52.5749671,59.0712463 55.8587473,55.7874199 C59.1427254,52.5035935 59.6253627,47.9319957 59.6253627,42.4267913 L59.6253627,17.6692748 C59.6253627,12.164044 59.1427254,7.56026375 55.8587473,4.30859341 Z M54.4422199,16.7678242 L54.4422199,43.2960001 C54.4422199,46.6441979 54.0236704,50.0568265 52.0598243,52.0206792 C50.1281539,53.9523429 46.6511869,54.4030616 43.3351649,54.4030616 L16.5494506,54.4030616 C13.2334286,54.4030616 9.75646155,53.9523429 7.7926154,52.0206792 C5.86094506,50.0568265 5.44239561,46.6441979 5.44239561,43.2960001 L5.44239561,16.8644176 C5.44239561,13.484044 5.86094506,10.007011 7.7926154,8.07534067 C9.75646155,6.11149452 13.2656044,5.693011 16.646044,5.693011 L43.3351649,5.693011 C46.6511869,5.693011 50.1281539,6.14373627 52.0598243,8.07534067 C54.0236704,10.0392528 54.4422199,13.4518022 54.4422199,16.7678242 Z M15.7767693,30.0319121 C15.7767693,31.6094506 16.8714066,32.6718462 18.5132967,32.6718462 L27.2701978,32.6718462 L27.2701978,41.4609231 C27.2701978,43.0706374 28.3325935,44.1652748 29.9101319,44.1652748 C31.5198462,44.1652748 32.6466594,43.0706374 32.6466594,41.4609231 L32.6466594,32.6718462 L41.4034946,32.6718462 C43.0132089,32.6718462 44.1400221,31.6094506 44.1400221,30.0319121 C44.1400221,28.4221978 43.0454506,27.2953847 41.4034946,27.2953847 L32.6466594,27.2953847 L32.6466594,18.5707253 C32.6466594,16.8965934 31.5198462,15.802022 29.9101319,15.802022 C28.3325935,15.802022 27.2701978,16.9288352 27.2701978,18.5707253 L27.2701978,27.2953847 L18.5132967,27.2953847 C16.8714066,27.2953847 15.7767693,28.4221978 15.7767693,30.0319121 Z" transform="translate(2 2)"></path>
</svg>
